%YAML 1.1
%TAG !u! tag:unity3d.com,2011:
--- !u!114 &11400000
MonoBehaviour:
  m_ObjectHideFlags: 0
  m_CorrespondingSourceObject: {fileID: 0}
  m_PrefabInstance: {fileID: 0}
  m_PrefabAsset: {fileID: 0}
  m_GameObject: {fileID: 0}
  m_Enabled: 1
  m_EditorHideFlags: 0
  m_Script: {fileID: 11500000, guid: bbb281ee3bf0b054c82ac2347e9e782c, type: 3}
  m_Name: Font
  m_EditorClassIdentifier: 
  m_GroupName: Font
  m_Data:
    m_SerializedData: []
  m_GUID: 72751439ec8435a47b53d7f3fc0455c2
  m_SerializeEntries:
  - m_GUID: e25ad2e038425824dbfaac9064e861d8
    m_Address: Font/source_bold
    m_ReadOnly: 0
    m_SerializedLabels: []
    FlaggedDuringContentUpdateRestriction: 0
  m_ReadOnly: 0
  m_Settings: {fileID: 11400000, guid: 7f1982874cfeecd4696139b602f60be7, type: 2}
  m_SchemaSet:
    m_Schemas:
    - {fileID: 11400000, guid: 7dd5509a7e2cd7245a95a5e1aa19fada, type: 2}
    - {fileID: 11400000, guid: 8f201283f726a6b40a68da9e9f8b363a, type: 2}
